[comment encoding = UTF-8 /]
[module generate('platform://EcoreA1/model/ecoreA1.ecore')]


[template public generateElement(finn : Finn)]
[comment @main/]
[file ('Finn.html', false, 'UTF-8')]

<html>
<head>
<style>
.section {
	margin : 30px;
}

.content {
	display : flex;
}
</style>
</head>
<body>
<ul>
[for (l: Listing | finn.listing) ]
	<img src="../placeholder.png" border="1px black"/>
	<li style="list-style-type:none;"> [(l.Title) /] </li>
	<li style="list-style-type:none;"> [(l.Description) /] </li>
	<li style="list-style-type:none;"> [(l.Price) /] </li>
	<li style="list-style-type:none;"> [(l.user.Name) /] </li>


[/for]

</ul>
</body>
</html>
[/file]
[/template]